"Index","Quantity","Part Number","Manufacturer Part Number","Description","Customer Reference","Available","Backorder","Unit Price","Extended Price GBP"
"1","2","ISD17240PY-ND","ISD17240PY","IC VOICE REC/PLAY 240SEC 28-DIP","","2","0","7.82000","15.64"
"2","3","296-2068-5-ND","CD4093BE","IC GATE NAND 4CH 2-INP 14DIP","","3","0","0.37000","1.11"
"3","3","296-14997-5-ND","TL072IP","IC OPAMP JFET 3MHZ 8DIP","","3","0","0.52000","1.56"
"4","10","1N4148-T50RCT-ND","1N4148-T50R","DIODE GEN PURP 100V 200MA DO35","","10","0","0.04900","0.49"
"5","3","497-1443-5-ND","L7805CV","IC REG LINEAR 5V 1.5A TO220AB","","3","0","0.38000","1.14"
"6","10","BC1101CT-ND","K104K15X7RF5TH5","CAP CER 0.1UF 50V X7R RADIAL","","10","0","0.11800","1.18"
"7","10","493-16046-ND","USW1H010MDD","CAP ALUM 1UF 20% 50V RADIAL","","10","0","0.12600","1.26"
"8","10","493-15163-ND","UFW2A100MED","CAP ALUM 10UF 20% 100V RADIAL","","10","0","0.13400","1.34"
"9","1","377-2094-ND","BB-32621","BREADBOARD TERM STRIP 3.20X2.08""","","1","0","3.42000","3.42"
"10","1","BKWK-2-ND","WK-2","JUMPER KIT VARIOUS 22AWG 140PCS","","1","0","4.71000","4.71"
